734223 473854 509
388562 712516 509
453090 747971 509
53923 169192 383
37379 893527 525
880048 486818 525
210235 939705 525
28987 746043 509
197184 102163 383
266021 323400 407
648762 700913 442
821238 888386 525
799382 449972 509
105166 441075 449
119370 414449 449
694567 821270 504
872934 318893 525
658191 878857 525
21071 145137 375
967242 344844 525
362347 97314 443
198269 643921 509
585450 624109 447
61588 743794 509
901517 548557 525
543563 517424 439
406431 27887 443
434195 805183 509
129117 216235 383
823945 741882 468
521676 979292 525
917684 307780 525
92063 83264 333
869008 780241 525
832865 194341 509
212723 516348 470
533910 7843 470
455288 722007 509
738519 668538 504
560719 886921 525
172461 642788 509
853167 599303 525
730365 563699 509
678096 498635 509
287813 597494 470
773591 514105 509
82411 480550 449
616598 722526 509
381199 144955 443
68540 804048 509
442362 890368 525
908903 443267 525
339720 118745 443
605178 366365 470
339029 701343 509
277324 596163 470
956454 187377 525
648895 986697 525
603675 688107 509
871777 966668 507
8781 901740 525
158775 458954 449
47577 587938 470
250303 826778 509
573077 796058 509
618777 147606 470
45532 796419 509
22286 958892 525
830130 340685 509
846098 370948 525
713238 211758 509
473409 490875 413
369665 527038 470
865760 2224 525
448418 657639 509
694786 806946 504
611345 197044 470
666899 175508 509
115202 644927 509
763455 610796 509
308654 207968 443
418920 145352 449
918496 107533 525
717483 490280 509
558161 653578 509
326906 623821 470
136899 901821 525
365879 764843 509
584002 614745 403
598445 590745 403
215783 673973 509
415457 84953 449
277728 39793 443
672966 528292 509
936748 999466 507
128830 796322 509
645461 653939 385
76138 365436 443
652235 237269 509
818049 348874 509
667903 948511 525
921553 859485 476
359998 360107 229
212782 902587 525
450446 886827 525
698099 335279 509
783482 20960 509
330476 979158 525
94910 341727 443
358094 337537 441
389458 260993 441
746388 781528 468
956907 352972 525
915390 937250 476
706976 500905 509
613159 977381 525
963640 751437 525
445789 270395 449
626397 782832 504
746019 394030 509
942313 415235 525
624242 50509 470
986076 621709 525
741798 125352 509
790375 292013 509
659644 957134 525
936191 154671 525
300154 661778 509
401730 199757 443
999656 879508 507
318293 274575 389
211731 598648 470
492829 181131 449
261028 98818 443
14220 696705 509
769516 1476 509
856662 757553 525
598511 516063 452
848153 400185 525
175770 924366 525
397036 19148 443
296 235919 443
29141 875527 525
11085 266443 443
433183 737688 509
908425 278266 525
446911 511048 444
793341 70415 509
331755 348323 441
324154 164835 443
888383 863039 445
481056 130777 449
693497 650261 442
763448 188105 509
652524 101345 509
424103 900343 525
71599 849143 525
292221 780217 509
675389 726607 504
870195 819152 525
729127 134484 509
477503 671788 509
340632 236936 407
982077 150823 525
88348 193379 383
416936 52515 449
452582 318877 449
200632 271362 443
739652 782796 468
966979 287295 525
689997 623170 509
329609 321444 384
938196 597415 525
17027 261374 443
206921 787903 509
248363 430952 449
305803 216171 443
214813 856171 525
935385 214899 525
177053 782583 509
921862 393676 525
394895 818155 509
27603 506195 449
332419 617615 470
443698 874843 525
318093 889403 525
100071 909022 525
451035 663424 509
892830 338762 525
519893 903033 525
785653 716029 468
756329 397649 509
14757 742618 509
222224 891328 525
399771 628755 509
298810 932429 525
906925 354696 525
107128 834579 509
600655 118165 470
265455 558700 470
744216 567265 509
189759 784332 509
379700 300088 441
847310 271577 525
644073 576426 509
90232 342697 443
151330 696172 509
342041 329800 366
655695 251395 509
228960 361234 443
189728 603434 470
183540 450103 449
742285 192552 509
108058 257230 443
860727 239127 525
248618 637257 509
14007 177026 383
188253 947752 525
366639 181289 443
559204 202779 470
496478 571776 470
508947 112831 449
445690 85455 449
47726 108716 354
750448 849439 525
921199 105580 525
889384 991114 507
18217 971053 525
720966 893846 525
330649 277637 389
853337 814160 525
730168 697968 504
533050 496803 470
381770 110538 443
420580 94435 449
656619 448983 509
703577 755417 504
264232 212383 443
606657 954630 525
820148 907082 525
542816 319444 470
764993 331042 509
813566 350882 509
913141 848092 476
934128 979812 507
4351 978287 525
452354 862369 525
548273 811849 509
83910 864160 525
271232 159345 443
107878 45600 354
497301 951575 525
789893 836242 468
111986 58030 354
984696 838371 507
203062 841202 525
592190 335632 470
531612 267520 470
612336 962445 525
380420 852783 525
134 996971 525
731303 502661 509
192642 139705 383
524534 522507 333
647484 319047 509
878855 820909 525
933506 751912 525
501179 193605 449
240839 330001 407
510683 868642 525
651589 451839 509
138161 565055 470
892847 720026 525
262732 381664 441
644431 826208 504
210120 511502 449
579720 509499 470
519367 720393 509
68127 203873 383
405154 690161 509
113407 833814 509
454826 347586 449
388675 747374 509
31982 919739 525
275053 296134 389
670585 429798 509
40777 290457 443
758086 416105 509
795456 861922 525
512825 379460 470
417473 537209 470
633312 145936 509
796208 721015 468
973781 773598 525
175424 891664 525
843975 770227 525
745240 84251 509
761768 125075 509
356604 591077 470
932730 328204 525
